[
  {
    "model": "sessions.session",
    "pk": "3pjmutfo4dkgelaogeokej70k53vla00",
    "fields": {
      "session_data": "Mzk4YTJhOGQzYmY4MmFiYTNhZmQ2MDFlODdlMjNlNTU0MjBmZjUwNDp7Il9hdXRoX3VzZXJfaWQiOiIxIiwiX2F1dGhfdXNlcl9iYWNrZW5kIjoiZGphbmdvLmNvbnRyaWIuYXV0aC5iYWNrZW5kcy5Nb2RlbEJhY2tlbmQiLCJfYXV0aF91c2VyX2hhc2giOiJiZWJlNDQ4YzA5MTcyNTU1MTFhOTIzMjNlZDc0NTAyODU5MGUzMzM1In0=",
      "expire_date": "2018-12-30T21:02:50.378Z"
    }
  },
  {
    "model": "sessions.session",
    "pk": "xf9jw5jawg4i6wwpmlolmjnbcz3jh5vv",
    "fields": {
      "session_data": "MWEyNzdlZjBhZmRlYjA4NDVkNGY4NWVhNjhmNmQyY2ZkMTRmMzQ3OTp7Il9hdXRoX3VzZXJfaWQiOiIzIiwiX2F1dGhfdXNlcl9iYWNrZW5kIjoiZGphbmdvLmNvbnRyaWIuYXV0aC5iYWNrZW5kcy5Nb2RlbEJhY2tlbmQiLCJfYXV0aF91c2VyX2hhc2giOiJlZWYyMmMwZDU3ZjgxOTYwODY1MzQ3MzFhZDQ0MTYxMjYyN2M4MTA0In0=",
      "expire_date": "2018-12-30T21:12:19.324Z"
    }
  },
  {
    "model": "projects.projectcategory",
    "pk": 1,
    "fields": {
      "name": "Cleaning"
    }
  },
  {
    "model": "projects.projectcategory",
    "pk": 2,
    "fields": {
      "name": "Painting"
    }
  },
  {
    "model": "projects.projectcategory",
    "pk": 3,
    "fields": {
      "name": "Gardening"
    }
  },
  {
    "model": "projects.project",
    "pk": 1,
    "fields": {
      "user": 1,
      "title": "Fixing the outside of my house",
      "description": "Need painting and landscaping",
      "category": 2,
      "status": "i",
      "participants": [
        3
      ]
    }
  },
  {
    "model": "projects.task",
    "pk": 1,
    "fields": {
      "project": 1,
      "title": "Painting and gardening",
      "description": "Painting and gardening",
      "budget": 450,
      "status": "ad",
      "feedback": "",
      "read": [
        3
      ],
      "write": [
        3
      ],
      "modify": []
    }
  },
  {
    "model": "projects.team",
    "pk": 1,
    "fields": {
      "name": "Gardening",
      "task": 1,
      "write": false,
      "members": [
        2
      ]
    }
  },
  {
    "model": "projects.taskfile",
    "pk": 1,
    "fields": {
      "task": 1,
      "file": "static/uploads/tasks/1/Fake_file_2"
    }
  },
  {
    "model": "projects.taskfile",
    "pk": 2,
    "fields": {
      "task": 1,
      "file": "static/uploads/tasks/1/Fake_file_1"
    }
  },
  {
    "model": "projects.taskfileteam",
    "pk": 1,
    "fields": {
      "file": 1,
      "team": 1,
      "name": "",
      "read": true,
      "write": false,
      "modify": false
    }
  },
  {
    "model": "projects.taskoffer",
    "pk": 1,
    "fields": {
      "task": 1,
      "offerer": 3,
      "title": "The best offer",
      "price": 400,
      "description": "I can paint for you and find someone to do the gardening",
      "status": "a",
      "feedback": "Looks good!"
    }
  },
  {
    "model": "auth.permission",
    "pk": 1,
    "fields": {
      "name": "Can add log entry",
      "content_type": 1,
      "codename": "add_logentry"
    }
  },
  {
    "model": "auth.permission",
    "pk": 2,
    "fields": {
      "name": "Can change log entry",
      "content_type": 1,
      "codename": "change_logentry"
    }
  },
  {
    "model": "auth.permission",
    "pk": 3,
    "fields": {
      "name": "Can delete log entry",
      "content_type": 1,
      "codename": "delete_logentry"
    }
  },
  {
    "model": "auth.permission",
    "pk": 4,
    "fields": {
      "name": "Can add permission",
      "content_type": 2,
      "codename": "add_permission"
    }
  },
  {
    "model": "auth.permission",
    "pk": 5,
    "fields": {
      "name": "Can change permission",
      "content_type": 2,
      "codename": "change_permission"
    }
  },
  {
    "model": "auth.permission",
    "pk": 6,
    "fields": {
      "name": "Can delete permission",
      "content_type": 2,
      "codename": "delete_permission"
    }
  },
  {
    "model": "auth.permission",
    "pk": 7,
    "fields": {
      "name": "Can add group",
      "content_type": 3,
      "codename": "add_group"
    }
  },
  {
    "model": "auth.permission",
    "pk": 8,
    "fields": {
      "name": "Can change group",
      "content_type": 3,
      "codename": "change_group"
    }
  },
  {
    "model": "auth.permission",
    "pk": 9,
    "fields": {
      "name": "Can delete group",
      "content_type": 3,
      "codename": "delete_group"
    }
  },
  {
    "model": "auth.permission",
    "pk": 10,
    "fields": {
      "name": "Can add user",
      "content_type": 4,
      "codename": "add_user"
    }
  },
  {
    "model": "auth.permission",
    "pk": 11,
    "fields": {
      "name": "Can change user",
      "content_type": 4,
      "codename": "change_user"
    }
  },
  {
    "model": "auth.permission",
    "pk": 12,
    "fields": {
      "name": "Can delete user",
      "content_type": 4,
      "codename": "delete_user"
    }
  },
  {
    "model": "auth.permission",
    "pk": 13,
    "fields": {
      "name": "Can add content type",
      "content_type": 5,
      "codename": "add_contenttype"
    }
  },
  {
    "model": "auth.permission",
    "pk": 14,
    "fields": {
      "name": "Can change content type",
      "content_type": 5,
      "codename": "change_contenttype"
    }
  },
  {
    "model": "auth.permission",
    "pk": 15,
    "fields": {
      "name": "Can delete content type",
      "content_type": 5,
      "codename": "delete_contenttype"
    }
  },
  {
    "model": "auth.permission",
    "pk": 16,
    "fields": {
      "name": "Can add session",
      "content_type": 6,
      "codename": "add_session"
    }
  },
  {
    "model": "auth.permission",
    "pk": 17,
    "fields": {
      "name": "Can change session",
      "content_type": 6,
      "codename": "change_session"
    }
  },
  {
    "model": "auth.permission",
    "pk": 18,
    "fields": {
      "name": "Can delete session",
      "content_type": 6,
      "codename": "delete_session"
    }
  },
  {
    "model": "auth.permission",
    "pk": 19,
    "fields": {
      "name": "Can add delivery",
      "content_type": 7,
      "codename": "add_delivery"
    }
  },
  {
    "model": "auth.permission",
    "pk": 20,
    "fields": {
      "name": "Can change delivery",
      "content_type": 7,
      "codename": "change_delivery"
    }
  },
  {
    "model": "auth.permission",
    "pk": 21,
    "fields": {
      "name": "Can delete delivery",
      "content_type": 7,
      "codename": "delete_delivery"
    }
  },
  {
    "model": "auth.permission",
    "pk": 22,
    "fields": {
      "name": "Can add project",
      "content_type": 8,
      "codename": "add_project"
    }
  },
  {
    "model": "auth.permission",
    "pk": 23,
    "fields": {
      "name": "Can change project",
      "content_type": 8,
      "codename": "change_project"
    }
  },
  {
    "model": "auth.permission",
    "pk": 24,
    "fields": {
      "name": "Can delete project",
      "content_type": 8,
      "codename": "delete_project"
    }
  },
  {
    "model": "auth.permission",
    "pk": 25,
    "fields": {
      "name": "Can add project category",
      "content_type": 9,
      "codename": "add_projectcategory"
    }
  },
  {
    "model": "auth.permission",
    "pk": 26,
    "fields": {
      "name": "Can change project category",
      "content_type": 9,
      "codename": "change_projectcategory"
    }
  },
  {
    "model": "auth.permission",
    "pk": 27,
    "fields": {
      "name": "Can delete project category",
      "content_type": 9,
      "codename": "delete_projectcategory"
    }
  },
  {
    "model": "auth.permission",
    "pk": 28,
    "fields": {
      "name": "Can add task",
      "content_type": 10,
      "codename": "add_task"
    }
  },
  {
    "model": "auth.permission",
    "pk": 29,
    "fields": {
      "name": "Can change task",
      "content_type": 10,
      "codename": "change_task"
    }
  },
  {
    "model": "auth.permission",
    "pk": 30,
    "fields": {
      "name": "Can delete task",
      "content_type": 10,
      "codename": "delete_task"
    }
  },
  {
    "model": "auth.permission",
    "pk": 31,
    "fields": {
      "name": "Can add task file",
      "content_type": 11,
      "codename": "add_taskfile"
    }
  },
  {
    "model": "auth.permission",
    "pk": 32,
    "fields": {
      "name": "Can change task file",
      "content_type": 11,
      "codename": "change_taskfile"
    }
  },
  {
    "model": "auth.permission",
    "pk": 33,
    "fields": {
      "name": "Can delete task file",
      "content_type": 11,
      "codename": "delete_taskfile"
    }
  },
  {
    "model": "auth.permission",
    "pk": 34,
    "fields": {
      "name": "Can add task file team",
      "content_type": 12,
      "codename": "add_taskfileteam"
    }
  },
  {
    "model": "auth.permission",
    "pk": 35,
    "fields": {
      "name": "Can change task file team",
      "content_type": 12,
      "codename": "change_taskfileteam"
    }
  },
  {
    "model": "auth.permission",
    "pk": 36,
    "fields": {
      "name": "Can delete task file team",
      "content_type": 12,
      "codename": "delete_taskfileteam"
    }
  },
  {
    "model": "auth.permission",
    "pk": 37,
    "fields": {
      "name": "Can add task offer",
      "content_type": 13,
      "codename": "add_taskoffer"
    }
  },
  {
    "model": "auth.permission",
    "pk": 38,
    "fields": {
      "name": "Can change task offer",
      "content_type": 13,
      "codename": "change_taskoffer"
    }
  },
  {
    "model": "auth.permission",
    "pk": 39,
    "fields": {
      "name": "Can delete task offer",
      "content_type": 13,
      "codename": "delete_taskoffer"
    }
  },
  {
    "model": "auth.permission",
    "pk": 40,
    "fields": {
      "name": "Can add team",
      "content_type": 14,
      "codename": "add_team"
    }
  },
  {
    "model": "auth.permission",
    "pk": 41,
    "fields": {
      "name": "Can change team",
      "content_type": 14,
      "codename": "change_team"
    }
  },
  {
    "model": "auth.permission",
    "pk": 42,
    "fields": {
      "name": "Can delete team",
      "content_type": 14,
      "codename": "delete_team"
    }
  },
  {
    "model": "auth.permission",
    "pk": 43,
    "fields": {
      "name": "Can add profile",
      "content_type": 15,
      "codename": "add_profile"
    }
  },
  {
    "model": "auth.permission",
    "pk": 44,
    "fields": {
      "name": "Can change profile",
      "content_type": 15,
      "codename": "change_profile"
    }
  },
  {
    "model": "auth.permission",
    "pk": 45,
    "fields": {
      "name": "Can delete profile",
      "content_type": 15,
      "codename": "delete_profile"
    }
  },
  {
    "model": "auth.permission",
    "pk": 46,
    "fields": {
      "name": "Can add payment",
      "content_type": 16,
      "codename": "add_payment"
    }
  },
  {
    "model": "auth.permission",
    "pk": 47,
    "fields": {
      "name": "Can change payment",
      "content_type": 16,
      "codename": "change_payment"
    }
  },
  {
    "model": "auth.permission",
    "pk": 48,
    "fields": {
      "name": "Can delete payment",
      "content_type": 16,
      "codename": "delete_payment"
    }
  },
  {
    "model": "auth.user",
    "pk": 1,
    "fields": {
      "password": "pbkdf2_sha256$100000$dX8fnbJGaOab$f2n6B+H72KpLZd2OlceMgFvckekmVbBlrhhvUucI6OE=",
      "last_login": "2018-12-16T21:02:50.352Z",
      "is_superuser": true,
      "username": "admin",
      "first_name": "",
      "last_name": "",
      "email": "",
      "is_staff": true,
      "is_active": true,
      "date_joined": "2018-12-16T21:00:30.172Z",
      "groups": [],
      "user_permissions": []
    }
  },
  {
    "model": "auth.user",
    "pk": 2,
    "fields": {
      "password": "pbkdf2_sha256$100000$ooh4dbVpDkGg$CEeuvQlGXauD96Dlv8/NzSbb56sCE+wVI99DFT8fsGo=",
      "last_login": null,
      "is_superuser": false,
      "username": "joe",
      "first_name": "Joe",
      "last_name": "Dough",
      "email": "jd@garden.example.com",
      "is_staff": false,
      "is_active": true,
      "date_joined": "2018-12-16T21:07:23.042Z",
      "groups": [],
      "user_permissions": []
    }
  },
  {
    "model": "auth.user",
    "pk": 3,
    "fields": {
      "password": "pbkdf2_sha256$100000$Y67LCblSDfW4$yScpnMth0+fPLG7p95TfADnx30oMz7ZUZvv8D6ffV/w=",
      "last_login": "2018-12-16T21:12:19.298Z",
      "is_superuser": false,
      "username": "harrypotter",
      "first_name": "Harry",
      "last_name": "Potter",
      "email": "hp@deskjet.example.com",
      "is_staff": false,
      "is_active": true,
      "date_joined": "2018-12-16T21:09:23.768Z",
      "groups": [],
      "user_permissions": []
    }
  },
  {
    "model": "user.profile",
    "pk": 1,
    "fields": {
      "user": 1,
      "company": "",
      "phone_number": "",
      "street_address": "",
      "city": "",
      "state": "",
      "postal_code": "",
      "country": "",
      "categories": []
    }
  },
  {
    "model": "user.profile",
    "pk": 2,
    "fields": {
      "user": 2,
      "company": "Dough gardens",
      "phone_number": "",
      "street_address": "",
      "city": "",
      "state": "",
      "postal_code": "",
      "country": "",
      "categories": [
        3
      ]
    }
  },
  {
    "model": "user.profile",
    "pk": 3,
    "fields": {
      "user": 3,
      "company": "Magic house painting Inc",
      "phone_number": "",
      "street_address": "",
      "city": "",
      "state": "",
      "postal_code": "",
      "country": "",
      "categories": [
        2
      ]
    }
  },
  {
    "model": "admin.logentry",
    "pk": 1,
    "fields": {
      "action_time": "2018-12-16T21:03:13.879Z",
      "user": 1,
      "content_type": 9,
      "object_id": "1",
      "object_repr": "Cleaning",
      "action_flag": 1,
      "change_message": "[{\"added\": {}}]"
    }
  },
  {
    "model": "admin.logentry",
    "pk": 2,
    "fields": {
      "action_time": "2018-12-16T21:03:18.055Z",
      "user": 1,
      "content_type": 9,
      "object_id": "2",
      "object_repr": "Painting",
      "action_flag": 1,
      "change_message": "[{\"added\": {}}]"
    }
  },
  {
    "model": "admin.logentry",
    "pk": 3,
    "fields": {
      "action_time": "2018-12-16T21:03:22.764Z",
      "user": 1,
      "content_type": 9,
      "object_id": "3",
      "object_repr": "Gardening",
      "action_flag": 1,
      "change_message": "[{\"added\": {}}]"
    }
  },
  {
    "model": "admin.logentry",
    "pk": 4,
    "fields": {
      "action_time": "2018-12-16T21:09:38.934Z",
      "user": 1,
      "content_type": 4,
      "object_id": "3",
      "object_repr": "harrypotter",
      "action_flag": 2,
      "change_message": "[{\"changed\": {\"fields\": [\"is_active\"]}}]"
    }
  },
  {
    "model": "admin.logentry",
    "pk": 5,
    "fields": {
      "action_time": "2018-12-16T21:09:38.974Z",
      "user": 1,
      "content_type": 4,
      "object_id": "2",
      "object_repr": "joe",
      "action_flag": 2,
      "change_message": "[{\"changed\": {\"fields\": [\"is_active\"]}}]"
    }
  }
]